^C:\USERS\TOLGA\APPDATA\LOCAL\TEMP\.NETFRAMEWORK,VERSION=V4.6.1.ASSEMBLYATTRIBUTES.CPP
C:\USERS\TOLGA\APPDATA\LOCAL\TEMP\.NETFRAMEWORK,VERSION=V4.6.1.ASSEMBLYATTRIBUTES.CPP
C:\WINDOWS\GLOBALIZATION\SORTING\SORTDEFAULT.NLS
C:\PROGRAM FILES (X86)\MICROSOFT VISUAL STUDIO\2017\COMMUNITY\VC\TOOLS\MSVC\14.12.25827\BIN\HOSTX86\X86\1033\CLUI.DLL
C:\WINDOWS\MICROSOFT.NET\FRAMEWORK\V2.0.50727\MSCORWKS.DLL
C:\WINDOWS\MICROSOFT.NET\FRAMEWORK\V4.0.30319\CLR.DLL
C:\PROGRAM FILES (X86)\MICROSOFT VISUAL STUDIO\2017\COMMUNITY\VC\TOOLS\MSVC\14.12.25827\BIN\HOSTX86\X86\CL.EXE.CONFIG
C:\WINDOWS\SYSTEM32\TZRES.DLL
C:\Users\Tolga\source\repos\Image-Processing\Image-Processing\Debug\Image-Processing.tlog\MSCORLIB.DLL.metagen
^C:\USERS\TOLGA\SOURCE\REPOS\IMAGE-PROCESSING\IMAGE-PROCESSING\MYFORM.CPP
C:\USERS\TOLGA\SOURCE\REPOS\IMAGE-PROCESSING\IMAGE-PROCESSING\MYFORM.CPP
C:\WINDOWS\GLOBALIZATION\SORTING\SORTDEFAULT.NLS
C:\PROGRAM FILES (X86)\MICROSOFT VISUAL STUDIO\2017\COMMUNITY\VC\TOOLS\MSVC\14.12.25827\BIN\HOSTX86\X86\1033\CLUI.DLL
C:\WINDOWS\MICROSOFT.NET\FRAMEWORK\V2.0.50727\MSCORWKS.DLL
C:\WINDOWS\MICROSOFT.NET\FRAMEWORK\V4.0.30319\CLR.DLL
C:\PROGRAM FILES (X86)\MICROSOFT VISUAL STUDIO\2017\COMMUNITY\VC\TOOLS\MSVC\14.12.25827\BIN\HOSTX86\X86\CL.EXE.CONFIG
C:\WINDOWS\SYSTEM32\TZRES.DLL
C:\Users\Tolga\source\repos\Image-Processing\Image-Processing\Debug\Image-Processing.tlog\SYSTEM.DATA.DLL.metagen
C:\Users\Tolga\source\repos\Image-Processing\Image-Processing\Debug\Image-Processing.tlog\SYSTEM.DLL.metagen
C:\Users\Tolga\source\repos\Image-Processing\Image-Processing\Debug\Image-Processing.tlog\SYSTEM.DRAWING.DLL.metagen
C:\Users\Tolga\source\repos\Image-Processing\Image-Processing\Debug\Image-Processing.tlog\SYSTEM.WINDOWS.FORMS.DLL.metagen
C:\Users\Tolga\source\repos\Image-Processing\Image-Processing\Debug\Image-Processing.tlog\SYSTEM.XML.DLL.metagen
C:\USERS\TOLGA\SOURCE\REPOS\IMAGE-PROCESSING\IMAGE-PROCESSING\MYFORM.H
C:\Users\Tolga\source\repos\Image-Processing\Image-Processing\Debug\Image-Processing.tlog\MSCORLIB.DLL.metagen
